// Jest Snapshot v1, https://goo.gl/fbAQLP

exports[`A news detail component matches its snapshot correctly 1`] = `
<View
  style={
    Object {
      "flex": 1,
      "overflow": "hidden",
    }
  }
>
  <RNCWKWebView
    cacheEnabled={true}
    messagingEnabled={false}
    onLoadingError={[Function]}
    onLoadingFinish={[Function]}
    onLoadingProgress={[Function]}
    onLoadingStart={[Function]}
    onMessage={[Function]}
    onShouldStartLoadWithRequest={[Function]}
    source={
      Object {
        "method": "GET",
        "uri": "http://localhost",
      }
    }
    startInLoadingState={true}
    style={
      Array [
        Object {
          "flex": 1,
          "overflow": "hidden",
        },
        Object {
          "backgroundColor": "#ffffff",
        },
        undefined,
        Object {
          "flex": 0,
          "height": 0,
        },
      ]
    }
    useSharedProcessPool={true}
  />
  <ActivityIndicator
    animating={true}
    color="#45D56E"
    hidesWhenStopped={true}
    size="large"
    style={
      Object {
        "height": 80,
      }
    }
  />
</View>
`;
