// Jest Snapshot v1, https://goo.gl/fbAQLP

exports[`A header image component matches its snapshot correctly in landscape orientation 1`] = `
<Image
  resizeMode="cover"
  source={
    Object {
      "testUri": "../../../src/assets/header_logo_v2.jpg",
    }
  }
  style={
    Object {
      "height": null,
      "width": 100,
    }
  }
/>
`;

exports[`A header image component matches its snapshot correctly in portrait orientation 1`] = `
<Image
  resizeMode="cover"
  source={
    Object {
      "testUri": "../../../src/assets/header_logo_v2.jpg",
    }
  }
  style={
    Object {
      "height": null,
      "width": 100,
    }
  }
/>
`;
