// Jest Snapshot v1, https://goo.gl/fbAQLP

exports[`A text header with two-words matches its snapshot correctly 1`] = `
<View
  style={
    Object {
      "backgroundColor": "#4c387a",
      "flexDirection": "row",
      "justifyContent": "center",
      "padding": 8,
    }
  }
>
  <Text
    style={
      Array [
        Object {
          "color": "#000",
          "fontSize": 27,
          "lineHeight": 32,
        },
        Object {
          "color": "white",
          "fontSize": 16,
          "fontWeight": "bold",
          "marginHorizontal": 2,
          "textTransform": "uppercase",
        },
      ]
    }
  >
    Lorem
  </Text>
  <Text
    style={
      Array [
        Object {
          "color": "#000",
          "fontSize": 27,
          "lineHeight": 32,
        },
        Object {
          "color": "white",
          "fontSize": 16,
          "marginHorizontal": 2,
          "textTransform": "uppercase",
        },
      ]
    }
  >
    Ipsum
  </Text>
</View>
`;
